Conectividad ecológica
…
  layer       crs units   class n_classes OK
1     1 projected     m integer         6  ✔

Conectividad de parche
Distancia Euclidiana al Parche Más Cercano
Agregación a nivel de clase
Índice de Aglomeración
Índice de Cohesión del Parche
Índice de Agregación

La métrica lsm_p_contig() (Índice de contigüidad, o contiguity index) del paquete landscapemetrics es una métrica de forma a nivel de parche, y su propósito principal es cuantificar qué tan compacto o conectado internamente está un parche de hábitat.

calculate_lsm(Yoro, what = "lsm_p_contig")

# A tibble: 31,109 × 6
   layer level class    id metric value
   <int> <chr> <int> <int> <chr>  <dbl>
 1     1 patch     1     1 contig 0    
 2     1 patch     1     2 contig 0    
 3     1 patch     1     3 contig 0.667
 4     1 patch     1     4 contig 0.354
 5     1 patch     1     5 contig 0    
 6     1 patch     1     6 contig 0    
 7     1 patch     1     7 contig 0    
 8     1 patch     1     8 contig 0.623
 9     1 patch     1     9 contig 0.278
10     1 patch     1    10 contig 0.333
# ℹ 31,099 more rows
…
Valores bajos indican formas más alargadas, fragmentadas o ramificadas internamente.

Aplicaciones ecológicas:

Evaluar calidad del hábitat: Parches con mayor contigüidad pueden ofrecer condiciones más estables y seguras para ciertas especies (p. ej., menos borde).

Medir susceptibilidad a fragmentación: Parches con baja contigüidad podrían fragmentarse más fácilmente con pequeñas perturbaciones.

Comparar estructura interna del hábitat en diferentes paisajes o a lo largo del tiempo.

La métrica lsm_p_enn() (Euclidean Nearest-Neighbor Distance, o Distancia Euclidiana al Parche Más Cercano) es una métrica de agregación a nivel de parche, y se utiliza para cuantificar el aislamiento espacial de cada parche con respecto a otros parches de la misma clase de cobertura (por ejemplo, bosque con respecto a otros parches de bosque).

calculate_lsm(Yoro, what = "lsm_p_enn")

# A tibble: 31,109 × 6
   layer level class    id metric    value
   <int> <chr> <int> <int> <chr>     <dbl>
 1     1 patch     1     1 enn    0.00181 
 2     1 patch     1     2 enn    0.00243 
 3     1 patch     1     3 enn    0.00243 
 4     1 patch     1     4 enn    0.000603
 5     1 patch     1     5 enn    0.00286 
 6     1 patch     1     6 enn    0.00422 
 7     1 patch     1     7 enn    0.000603
 8     1 patch     1     8 enn    0.000539
 9     1 patch     1     9 enn    0.000603
10     1 patch     1    10 enn    0.000603
# ℹ 31,099 more rows
…
